Lab7/Experiment3/small_amplitude.csv

#Digilent WaveForms Oscilloscope Acquisition
#Device Name: Discovery2NI
#Serial Number: SN:210321ABE54E
#Date Time: 2023-04-27 21:05:03.602
#Sample rate: 1.11111e+07Hz
#Samples: 8192
#Trigger: Source: Channel 1 Type: Edge Condition: Falling Level: 2.5 V Hyst.: Auto HoldOff: 0 s
#Channel 1: Range: 50 mV/div Offset: -2.5 V Attenuation: 1 X Sample Mode: Average
#Channel 2: Range: 50 mV/div Offset: -2.5 V Attenuation: 1 X Sample Mode: Average
#Wavegen Channel 1: Running
#Mode: Simple
#Type: Square
#Frequency: 1 kHz
#Period: 1 ms
#Amplitude: 50 mV
#Offset: 2.5 V
#Symmetry: 50 %
#Phase: 0 °
#Power Supplies: ON
#Positive Supply: ON
#Voltage: 5 V
#Negative Supply: OFF
#Voltage: -500 mV

Time (s),Channel 1 (V),Channel 2 (V)
0.01334032478167859,2.420274717168722,2.444628402725288
0.01334041478167858,2.419601172957226,2.444967366188588
0.01334050478167859,2.419937945062972,2.444967366188587
0.01334059478167859,2.419937945062972,2.444628402725288
0.01334068478167858,2.419601172957224,2.444289439261988
0.01334077478167859,2.419937945062969,2.444628402725279
0.01334086478167859,2.419601172957225,2.443611512335387
0.01334095478167859,2.420274717168721,2.444289439261985
0.01334104478167858,2.419937945062975,2.44361151233539
0.01334113478167859,2.419937945062972,2.445306329651888
0.01334122478167859,2.419937945062972,2.444628402725289
0.01334131478167858,2.42027471716872,2.445306329651886
0.01334140478167859,2.419601172957227,2.444289439261985
0.01334149478167859,2.420274717168723,2.443950475798686
0.01334158478167858,2.420274717168723,2.444628402725285
0.01334167478167859,2.419937945062972,2.44428943926199
0.01334176478167859,2.419937945062972,2.444628402725288
0.01334185478167858,2.419937945062972,2.444289439261988
0.01334194478167859,2.420611489274469,2.443950475798695
0.01334203478167859,2.42027471716872,2.444967366188586
0.01334212478167859,2.419601172957224,2.443950475798689
0.01334221478167858,2.419937945062969,2.443950475798686
0.01334230478167859,2.419937945062975,2.445306329651886
0.01334239478167859,2.420611489274472,2.444289439261988
0.01334248478167858,2.420274717168725,2.444628402725286
0.01334257478167859,2.420274717168723,2.444628402725292
0.01334266478167859,2.420274717168723,2.445306329651891
0.01334275478167858,2.419601172957226,2.444967366188592
0.01334284478167859,2.42027471716872,2.445306329651883
0.01334293478167859,2.419937945062972,2.444289439261988
0.01334302478167858,2.419937945062972,2.444967366188586
0.01334311478167859,2.419937945062969,2.444289439261984
0.01334320478167859,2.419601172957222,2.443950475798687
0.01334329478167859,2.419601172957222,2.444289439261986
0.01334338478167858,2.420274717168717,2.44564529311518
0.01334347478167859,2.419601172957224,2.445645293115191
0.01334356478167859,2.419937945062972,2.445306329651891
0.01334365478167858,2.419601172957225,2.444967366188592
0.01334374478167859,2.419937945062971,2.444289439261993
0.01334383478167859,2.419601172957222,2.445306329651891
0.01334392478167858,2.419937945062971,2.443611512335395
0.01334401478167859,2.420611489274468,2.444628402725291
0.01334410478167859,2.419937945062972,2.444967366188588
0.01334419478167858,2.419601172957224,2.44428943926199
0.01334428478167859,2.420611489274469,2.445306329651884
0.01334437478167859,2.420274717168724,2.444628402725286
0.01334446478167859,2.420611489274472,2.443950475798688
0.01334455478167858,2.419937945062979,2.444289439261984
0.01334464478167859,2.419601172957222,2.444289439261987
0.01334473478167859,2.419601172957222,2.444289439261987
0.01334482478167858,2.41993794506297,2.444628402725286
0.01334491478167859,2.420274717168721,2.443611512335387
0.01334500478167859,2.419937945062972,2.443950475798686
0.01334509478167858,2.419937945062972,2.443950475798686
0.01334518478167859,2.42027471716872,2.443950475798681
0.01334527478167859,2.419937945062972,2.443272548872084
0.01334536478167858,2.419601172957224,2.443611512335383
0.01334545478167859,2.419601172957219,2.443950475798686
0.01334554478167859,2.419264400851474,2.443950475798687
0.01334563478167859,2.41993794506297,2.444289439261986
0.01334572478167858,2.419264400851479,2.442933585408795
0.01334581478167859,2.419264400851473,2.444289439261987
0.01334590478167859,2.419264400851473,2.444289439261987
0.01334599478167858,2.41960117295722,2.443950475798689
0.01334608478167859,2.419601172957224,2.444289439261985
0.01334617478167859,2.419937945062972,2.443950475798686
0.01334626478167858,2.420611489274469,2.445645293115182
0.01334635478167859,2.420274717168723,2.444628402725288
0.01334644478167859,2.420274717168723,2.44462840272529
0.01334653478167858,2.420611489274471,2.445645293115188
0.01334662478167859,2.419937945062978,2.444967366188589
0.01334671478167859,2.420611489274473,2.444967366188589
0.01334680478167859,2.420611489274473,2.444967366188589
0.01334689478167858,2.420274717168726,2.443950475798695
0.01334698478167859,2.420611489274471,2.444967366188591
0.01334707478167859,2.420274717168723,2.44530632965189
0.01334716478167858,2.42061148927447,2.444967366188592
0.01334725478167859,2.420611489274471,2.444967366188593
0.01334734478167859,2.420274717168723,2.445645293115192
0.01334743478167858,2.420274717168723,2.445306329651893
0.01334752478167859,2.420948261380218,2.444289439261995
0.01334761478167859,2.420274717168722,2.445306329651891
0.01334770478167858,2.419937945062974,2.445306329651891
0.01334779478167859,2.420274717168726,2.445645293115192
0.01334788478167859,2.420611489274472,2.445645293115192
0.01334797478167859,2.420274717168724,2.445645293115192
0.01334806478167858,2.420274717168723,2.444967366188596
0.01334815478167859,2.419937945062974,2.445306329651892
0.01334824478167859,2.420274717168722,2.445645293115192
0.01334833478167858,2.420274717168723,2.445306329651893
0.01334842478167859,2.420274717168721,2.444967366188593
0.01334851478167859,2.419937945062972,2.445645293115192
0.01334860478167858,2.42027471716872,2.445306329651893
0.01334869478167859,2.419937945062975,2.445645293115188
0.01334878478167859,2.420274717168723,2.444967366188589
0.01334887478167858,2.420274717168723,2.444289439261991
0.01334896478167859,2.42027471716872,2.444628402725283
0.01334905478167859,2.419937945062971,2.443950475798689
0.01334914478167858,2.419601172957223,2.445306329651886
0.01334923478167858,2.419601172957222,2.444628402725295
0.01334932478167859,2.419937945062974,2.445306329651889
0.01334941478167859,2.420274717168722,2.44496736618859
0.01334950478167858,2.420274717168723,2.444967366188589
0.01334959478167859,2.419601172957224,2.444289439261995
0.01334968478167859,2.419937945062972,2.445645293115192
0.01334977478167858,2.419937945062972,2.445306329651893
0.01334986478167859,2.420274717168725,2.445306329651891
0.01334995478167859,2.420611489274472,2.44530632965189
0.01335004478167858,2.419937945062976,2.444967366188591
0.01335013478167859,2.42027471716872,2.444628402725286
0.01335022478167859,2.419937945062972,2.444289439261988
0.01335031478167858,2.419937945062972,2.444967366188587
0.01335040478167859,2.419601172957219,2.44530632965188
0.01335049478167859,2.419264400851474,2.444289439261988
0.01335058478167859,2.419601172957222,2.444628402725288
0.01335067478167858,2.419601172957222,2.444628402725288
0.01335076478167859,2.419937945062971,2.443611512335386
0.01335085478167859,2.419601172957222,2.443950475798686
0.01335094478167858,2.41993794506297,2.444628402725284
0.01335103478167859,2.419264400851477,2.444289439261989
0.01335112478167859,2.419937945062973,2.444628402725288
0.01335121478167858,2.420611489274469,2.444628402725288
0.01335130478167859,2.419937945062978,2.443950475798689
0.01335139478167859,2.420611489274472,2.444289439261988
0.01335148478167858,2.420274717168724,2.444628402725287
0.01335157478167858,2.419937945062975,2.444967366188586
0.01335166478167859,2.420274717168726,2.445306329651889
0.01335175478167859,2.42128503348597,2.44496736618859
0.01335184478167858,2.420611489274478,2.444628402725291
0.01335193478167859,2.420611489274465,2.444628402725287
0.01335202478167859,2.419264400851474,2.444289439261988
0.01335211478167858,2.41960117295722,2.444289439261987
0.01335220478167859,2.419937945062972,2.444628402725288
0.01335229478167859,2.419937945062972,2.444628402725287
0.01335238478167858,2.419601172957224,2.44327254887209
0.01335247478167859,2.419264400851481,2.443950475798697
0.01335256478167859,2.420274717168722,2.445306329651888
0.01335265478167858,2.419937945062974,2.444289439261991
0.01335274478167859,2.419601172957226,2.444628402725285
0.01335283478167859,2.419937945062972,2.444289439261988
0.01335292478167859,2.419937945062972,2.444628402725288
0.01335301478167858,2.419937945062972,2.444628402725288
0.01335310478167859,2.419601172957224,2.444628402725288
0.01335319478167859,2.419937945062972,2.444628402725288
0.01335328478167858,2.42027471716872,2.444628402725288
0.01335337478167859,2.419264400851475,2.443950475798695
0.01335346478167859,2.419601172957222,2.445306329651891
0.01335355478167858,2.419601172957222,2.444967366188591
0.01335364478167859,2.420274717168717,2.44428943926199
0.01335373478167859,2.419601172957223,2.444628402725288
0.01335382478167858,2.419937945062971,2.444289439261988
0.01335391478167858,2.419937945062972,2.445645293115179
0.01335400478167859,2.419601172957224,2.444289439261986
0.01335409478167859,2.419937945062971,2.443950475798687
0.01335418478167858,2.419937945062972,2.443950475798686
0.01335427478167859,2.419937945062972,2.444289439261985
0.01335436478167859,2.419937945062972,2.443950475798686
0.01335445478167858,2.419601172957225,2.444967366188582
0.01335454478167859,2.418927628745731,2.444628402725291
0.01335463478167859,2.420274717168722,2.444967366188589
0.01335472478167858,2.419601172957226,2.44462840272529
0.01335481478167859,2.419601172957222,2.444628402725286
0.01335490478167859,2.419601172957223,2.444289439261988
0.01335499478167858,2.419937945062971,2.444967366188587
0.01335508478167859,2.419601172957222,2.444967366188589
0.01335517478167859,2.419601172957222,2.444967366188586
0.01335526478167859,2.419601172957222,2.443950475798688
0.01335535478167858,2.419264400851475,2.444289439261984
0.01335544478167859,2.419937945062972,2.444289439261987
0.01335553478167859,2.419937945062972,2.444289439261987
0.01335562478167858,2.419601172957225,2.444289439261987
0.01335571478167859,2.419601172957222,2.444289439261985
0.01335580478167859,2.419601172957222,2.443950475798686
0.01335589478167858,2.419264400851474,2.443950475798686
0.01335598478167859,2.41960117295722,2.44428943926199
0.01335607478167859,2.419264400851473,2.444628402725287
0.01335616478167858,2.419601172957221,2.443950475798689
0.01335625478167859,2.419937945062972,2.443950475798692
0.01335634478167859,2.419937945062971,2.444628402725288
0.01335643478167859,2.419601172957223,2.444289439261988
0.01335652478167858,2.419601172957222,2.444628402725285
0.01335661478167859,2.419937945062972,2.444289439261982
0.01335670478167859,2.419937945062972,2.443272548872084
0.01335679478167858,2.419937945062972,2.44428943926198
0.01335688478167859,2.419264400851475,2.444289439261989
0.01335697478167859,2.419601172957222,2.444628402725288
0.01335706478167858,2.419937945062971,2.443950475798689
0.01335715478167859,2.420274717168717,2.443611512335395
0.01335724478167859,2.419601172957223,2.444967366188588
0.01335733478167858,2.419937945062971,2.44395047579869
0.01335742478167859,2.418927628745726,2.443950475798692
0.01335751478167859,2.419264400851473,2.444628402725288
0.01335760478167859,2.419264400851473,2.444628402725288
0.01335769478167858,2.418590856639978,2.444628402725288
0.01335778478167859,2.419264400851473,2.444628402725288
0.01335787478167859,2.419264400851473,2.444628402725288
0.01335796478167858,2.419264400851473,2.443950475798691
0.01335805478167859,2.419601172957222,2.444967366188583
0.01335814478167859,2.419601172957222,2.443950475798686
0.01335823478167858,2.419264400851474,2.445306329651883
0.01335832478167859,2.418927628745728,2.444628402725291
0.01335841478167859,2.419601172957222,2.44496736618859
0.01335850478167858,2.419601172957222,2.445306329651889
0.01335859478167859,2.419601172957219,2.443950475798695
0.01335868478167859,2.419264400851475,2.444967366188588
0.01335877478167859,2.419937945062971,2.444628402725289
0.01335886478167858,2.419937945062972,2.445645293115183
0.01335895478167859,2.419601172957221,2.445306329651897
0.01335904478167859,2.419264400851473,2.446662183505094
0.01335913478167858,2.419937945062967,2.4456452931152
0.01335922478167859,2.419264400851474,2.444967366188593
0.01335931478167859,2.419601172957222,2.445645293115192
0.01335940478167858,2.418927628745727,2.444628402725295
0.01335949478167859,2.41960117295722,2.444628402725286
0.01335958478167859,2.419264400851473,2.444289439261987
0.01335967478167858,2.419601172957221,2.443950475798687
0.01335976478167859,2.419264400851476,2.444967366188586
0.01335985478167859,2.419601172957222,2.444628402725288
0.01335994478167859,2.419264400851473,2.444289439261988
0.01336003478167858,2.419264400851473,2.444967366188584
0.01336012478167859,2.419264400851476,2.444289439261986
0.01336021478167859,2.419937945062971,2.443950475798686
0.01336030478167858,2.419601172957225,2.443611512335387
0.01336039478167859,2.419264400851473,2.444289439261983
0.01336048478167859,2.419264400851473,2.443611512335385
0.01336057478167858,2.419601172957221,2.443950475798684
0.01336066478167859,2.419264400851475,2.443950475798693
0.01336075478167859,2.419601172957222,2.444967366188588
0.01336084478167858,2.419601172957222,2.44428943926199
0.01336093478167859,2.419937945062966,2.443272548872096
0.01336102478167859,2.419264400851473,2.444628402725288
0.01336111478167859,2.419601172957222,2.444289439261988
0.01336120478167858,2.419937945062969,2.443950475798689
0.01336129478167859,2.419264400851479,2.444289439261987
0.01336138478167859,2.420611489274471,2.444289439261987
0.01336147478167858,2.419937945062977,2.444289439261987
0.01336156478167859,2.420274717168721,2.445306329651887
0.01336165478167859,2.419937945062972,2.444628402725288
0.01336174478167858,2.419601172957224,2.444967366188587
0.01336183478167859,2.419937945062975,2.444628402725291
0.01336192478167859,2.420274717168722,2.444967366188591
0.01336201478167858,2.419601172957226,2.446323220041788
0.01336210478167859,2.419601172957222,2.444289439261996
0.01336219478167859,2.419601172957222,2.445306329651889
0.01336228478167859,2.419601172957222,2.444628402725291
0.01336237478167858,2.419601172957222,2.444967366188586
0.01336246478167859,2.419601172957221,2.443950475798686
0.01336255478167859,2.419264400851473,2.443950475798686
0.01336264478167858,2.41960117295722,2.444628402725283
0.01336273478167859,2.419601172957224,2.445306329651883
0.01336282478167859,2.419937945062972,2.443950475798686
0.01336291478167858,2.419601172957224,2.444967366188583
0.01336300478167859,2.41993794506297,2.445306329651891
0.01336309478167859,2.419601172957223,2.445306329651891
0.01336318478167858,2.419937945062971,2.445645293115191
0.01336327478167859,2.419601172957222,2.445306329651894
0.01336336478167859,2.419601172957222,2.445645293115189
0.01336345478167859,2.419601172957222,2.444628402725292
0.01336354478167858,2.419601172957222,2.44428943926199
0.01336363478167859,2.41960117295722,2.44462840272529
0.01336372478167859,2.418927628745724,2.444967366188589
0.01336381478167858,2.419937945062964,2.444967366188589
0.01336390478167859,2.419937945062972,2.444628402725288
0.01336399478167859,2.419937945062972,2.444628402725288
0.01336408478167858,2.419601172957225,2.444628402725288
0.01336417478167859,2.419264400851475,2.445306329651886
0.01336426478167859,2.419601172957222,2.444628402725289
0.01336435478167858,2.419264400851474,2.444967366188588
0.01336444478167859,2.419264400851476,2.444628402725292
0.01336453478167859,2.419601172957222,2.444967366188588
0.01336462478167859,2.419601172957222,2.444628402725289
0.01336471478167858,2.419264400851476,2.443950475798692
0.01336480478167859,2.419601172957224,2.444289439261991
0.01336489478167859,2.419937945062972,2.445306329651889
0.01336498478167858,2.42027471716872,2.443950475798697
0.01336507478167859,2.419937945062972,2.443950475798689
0.01336516478167859,2.419937945062972,2.444628402725288
0.01336525478167858,2.419601172957225,2.444628402725288
0.01336534478167859,2.419601172957222,2.444628402725288
0.01336543478167859,2.419601172957223,2.444628402725288
0.01336552478167858,2.420611489274468,2.444628402725288
0.01336561478167859,2.419937945062972,2.445306329651894
0.01336570478167859,2.419937945062971,2.445645293115188
0.01336579478167858,2.419601172957223,2.444289439261992
0.01336588478167858,2.419937945062969,2.445645293115179
0.01336597478167859,2.419937945062971,2.445306329651891
0.01336606478167859,2.419601172957223,2.445306329651891
0.01336615478167858,2.419601172957222,2.444628402725294
0.01336624478167859,2.41926440085148,2.445306329651891
0.01336633478167859,2.420611489274472,2.445306329651891
0.01336642478167858,2.419601172957229,2.444967366188592
0.01336651478167859,2.41993794506297,2.444967366188596
0.01336660478167859,2.419601172957223,2.445984256578492
0.01336669478167858,2.420274717168719,2.444628402725295
0.01336678478167859,2.420274717168717,2.445645293115181
0.01336687478167859,2.419601172957223,2.444289439261986
0.01336696478167858,2.419937945062971,2.443950475798687
0.01336705478167859,2.419601172957219,2.443950475798682
0.01336714478167859,2.419264400851474,2.443611512335385
0.01336723478167859,2.419601172957222,2.443611512335385
0.01336732478167858,2.419264400851475,2.444967366188578
0.01336741478167859,2.419601172957222,2.443611512335392
0.01336750478167859,2.419601172957222,2.444967366188589
0.01336759478167858,2.418927628745727,2.443272548872094
0.01336768478167859,2.41960117295722,2.442933585408789
0.01336777478167859,2.419264400851473,2.443950475798685
0.01336786478167858,2.419264400851473,2.443611512335386
0.01336795478167859,2.419264400851473,2.443611512335387
0.01336804478167859,2.419264400851473,2.443950475798684
0.01336813478167858,2.419264400851473,2.442933585408786
0.01336822478167858,2.419601172957219,2.443611512335378
0.01336831478167859,2.419264400851473,2.443611512335387
0.01336840478167859,2.419264400851473,2.444289439261986
0.01336849478167858,2.41960117295722,2.44361151233539
0.01336858478167859,2.419601172957221,2.443611512335385
0.01336867478167859,2.419264400851473,2.443611512335385
0.01336876478167858,2.419264400851473,2.443611512335385
0.01336885478167859,2.41960117295722,2.44395047579869
0.01336894478167859,2.419264400851473,2.444628402725289
0.01336903478167858,2.419601172957221,2.445306329651887
0.01336912478167859,2.419264400851475,2.445306329651888
0.01336921478167859,2.419601172957224,2.444967366188589
0.01336930478167858,2.42027471716872,2.444967366188589
0.01336939478167859,2.419601172957226,2.444967366188586
0.01336948478167859,2.419937945062972,2.444628402725285
0.01336957478167859,2.419937945062972,2.443611512335387
0.01336966478167858,2.419937945062972,2.443950475798683
0.01336975478167859,2.419937945062969,2.443611512335388
0.01336984478167859,2.419264400851473,2.444289439261987
0.01336993478167858,2.420274717168716,2.443611512335389
0.01337002478167859,2.42061148927447,2.443611512335385
0.01337011478167859,2.420274717168722,2.443611512335385
0.01337020478167858,2.419601172957226,2.443611512335385
0.01337029478167859,2.420274717168723,2.443611512335385
0.01337038478167859,2.420274717168723,2.443611512335383
0.01337047478167858,2.420274717168723,2.442933585408785
0.01337056478167858,2.419264400851482,2.443611512335378
0.01337065478167859,2.420274717168723,2.443611512335383
0.01337074478167859,2.420274717168723,2.443272548872084
0.01337083478167858,2.419601172957228,2.443272548872083
0.01337092478167859,2.419937945062972,2.443272548872085
0.01337101478167859,2.419937945062972,2.443611512335384
0.01337110478167858,2.419937945062972,2.443611512335385
0.01337119478167859,2.41993794506297,2.442594621945489
0.01337128478167859,2.419601172957223,2.443950475798686
